{
  "org.apache.sling.commons.log.pattern": "{0,date,yyyy-MM-dd HH:mm:ss.SSS} *{4}* [{2}] {3} {5}",
  "org.apache.sling.commons.log.names": [
    "by.itechart.training"
  ],
  "org.apache.sling.commons.log.level": "info",
  "org.apache.sling.commons.log.file": "logs/error.log",
  "org.apache.sling.commons.log.additiv": "false"
}
